{
  "resourceType": "Observation",
  "status": "final",
  "code": {
    "coding": [
      {
        "system": "http://loinc.org",
        "code": "15074-8",
        "display": "Glucose [Moles/volume] in Blood"
      }
    ]
  },
  "subject": {
    "reference": "Patient/f001",
    "display": "P. van de Heuvel"
  },
  "effectiveDateTime": "2013-04-03T15:30:10+01:00",
  "issued": "2013-04-03T15:30:10+01:00",
  "performer": [
    {
      "reference": "Practitioner/f005",
      "display": "A. Langeveld"
    }
  ],
  "valueQuantity": {
    "value": 6.3,
    "unit": "mmol/l",
    "system": "http://unitsofmeasure.org",
    "code": "mmol/L"
  },
  "referenceRange": [
    {
      "low": {
        "value": 3.1,
        "unit": "mmol/l",
        "system": "http://unitsofmeasure.org",
        "code": "mmol/L"
      },
      "high": {
        "value": 6.2,
        "unit": "mmol/l",
        "system": "http://unitsofmeasure.org",
        "code": "mmol/L"
      }
    }
  ],
  "extension": [
    {
      "url": "http://www.diabetesreminder.com/observationTiming",
      "valueCode": "ACM"
    }
  ]
}